;name;habitants;id;1900;1901;1902;1903;1904;1905;1906;1907;1908;1909;1910;1911;1912;1913;1914;1915;1916;1917;1918;1919;1920;1921;1922;1923;1924;1925;1926;1927;1928;1929;1930;1931;1932;1933;1934;1935;1936;1937;1938;1939;1940;token
0;Paris;2206488;0;0.0;0.0;0.0;0.0;1031.0;1458.0;1437.0;1442.0;1423.0;1451.0;1429.0;1443.0;1389.0;2045.0;1522.0;1326.0;1305.0;1136.0;842.0;1265.0;1314.0;1509.0;1581.0;1599.0;1661.0;1732.0;1973.0;1997.0;2045.0;1883.0;1829.0;1850.0;1936.0;1962.0;2145.0;2220.0;2536.0;2869.0;2830.0;1870.0;0.0;38509.0
1;Marseille;861635;1;0.0;0.0;0.0;0.0;401.0;360.0;407.0;495.0;521.0;452.0;393.0;295.0;380.0;412.0;320.0;221.0;239.0;109.0;139.0;470.0;317.0;439.0;551.0;466.0;362.0;532.0;602.0;546.0;696.0;548.0;566.0;622.0;714.0;698.0;812.0;866.0;911.0;1157.0;1327.0;821.0;0.0;
2;Lyon ;513275;2;0.0;0.0;0.0;0.0;503.0;690.0;673.0;606.0;397.0;444.0;380.0;379.0;466.0;647.0;475.0;237.0;280.0;181.0;138.0;427.0;440.0;458.0;454.0;465.0;498.0;448.0;609.0;630.0;687.0;573.0;576.0;762.0;786.0;708.0;821.0;839.0;841.0;970.0;1041.0;615.0;0.0;
3;Toulouse;471941;3;0.0;0.0;0.0;0.0;151.0;288.0;266.0;211.0;376.0;241.0;262.0;194.0;145.0;223.0;186.0;93.0;137.0;82.0;51.0;140.0;126.0;179.0;157.0;188.0;209.0;161.0;252.0;346.0;459.0;389.0;348.0;330.0;362.0;255.0;402.0;471.0;678.0;724.0;775.0;499.0;0.0;
4;Nice;342522;4;0.0;0.0;0.0;0.0;106.0;136.0;148.0;156.0;125.0;140.0;154.0;196.0;134.0;311.0;254.0;66.0;63.0;34.0;28.0;79.0;98.0;135.0;116.0;129.0;122.0;145.0;253.0;189.0;157.0;175.0;160.0;175.0;224.0;244.0;444.0;405.0;382.0;677.0;702.0;520.0;0.0;
5;Nantes;303382;5;0.0;0.0;0.0;0.0;187.0;287.0;316.0;349.0;272.0;352.0;334.0;342.0;367.0;549.0;341.0;246.0;173.0;119.0;120.0;243.0;228.0;268.0;255.0;304.0;281.0;286.0;294.0;322.0;310.0;475.0;377.0;401.0;339.0;340.0;406.0;430.0;454.0;452.0;606.0;408.0;0.0;
6;Montpellier;277639;6;0.0;0.0;0.0;0.0;76.0;124.0;115.0;236.0;88.0;107.0;64.0;101.0;57.0;111.0;67.0;20.0;36.0;10.0;14.0;62.0;86.0;78.0;76.0;93.0;102.0;89.0;114.0;102.0;177.0;127.0;134.0;187.0;170.0;218.0;200.0;243.0;243.0;424.0;429.0;312.0;0.0;
7;Strasbourg;277270;7;0.0;0.0;0.0;0.0;73.0;112.0;181.0;140.0;195.0;151.0;105.0;103.0;111.0;274.0;253.0;202.0;132.0;64.0;96.0;354.0;489.0;263.0;209.0;170.0;154.0;158.0;224.0;225.0;227.0;213.0;181.0;256.0;411.0;471.0;292.0;447.0;495.0;748.0;922.0;572.0;0.0;
8;Bordeaux;249712;8;0.0;0.0;0.0;0.0;215.0;254.0;294.0;345.0;251.0;231.0;374.0;269.0;320.0;426.0;442.0;210.0;253.0;201.0;162.0;234.0;270.0;306.0;296.0;301.0;242.0;304.0;368.0;484.0;521.0;542.0;366.0;333.0;379.0;390.0;477.0;605.0;672.0;742.0;785.0;523.0;0.0;
9;Lille;232741;9;0.0;0.0;0.0;0.0;324.0;391.0;411.0;320.0;213.0;341.0;305.0;291.0;267.0;330.0;277.0;206.0;158.0;59.0;102.0;241.0;270.0;486.0;285.0;336.0;283.0;311.0;420.0;322.0;587.0;557.0;514.0;451.0;472.0;511.0;548.0;549.0;687.0;662.0;718.0;502.0;0.0;
10;Rennes;215366;10;0.0;0.0;0.0;0.0;336.0;437.0;500.0;371.0;332.0;335.0;265.0;290.0;342.0;589.0;446.0;290.0;225.0;184.0;157.0;348.0;400.0;461.0;536.0;437.0;452.0;461.0;691.0;577.0;438.0;351.0;362.0;400.0;559.0;453.0;526.0;774.0;908.0;1105.0;1282.0;858.0;0.0;
11;Reims;184076;11;0.0;0.0;0.0;0.0;69.0;95.0;130.0;137.0;115.0;142.0;147.0;232.0;137.0;260.0;272.0;210.0;99.0;136.0;134.0;111.0;84.0;100.0;141.0;110.0;158.0;112.0;136.0;155.0;172.0;208.0;202.0;214.0;197.0;155.0;216.0;205.0;218.0;205.0;268.0;162.0;0.0;
12;Le Havre;172366;12;0.0;0.0;0.0;0.0;285.0;395.0;395.0;225.0;197.0;204.0;230.0;229.0;391.0;427.0;296.0;281.0;214.0;97.0;79.0;194.0;170.0;244.0;500.0;408.0;319.0;233.0;314.0;231.0;333.0;230.0;309.0;370.0;379.0;370.0;349.0;412.0;323.0;390.0;437.0;316.0;0.0;
13;Saint-Étienne;171057;13;0.0;0.0;0.0;0.0;254.0;433.0;381.0;282.0;221.0;351.0;305.0;282.0;334.0;690.0;344.0;147.0;142.0;94.0;167.0;250.0;215.0;183.0;320.0;343.0;281.0;193.0;207.0;236.0;270.0;253.0;206.0;247.0;270.0;308.0;382.0;471.0;449.0;461.0;478.0;327.0;0.0;
14;Toulon;167479;14;0.0;0.0;0.0;0.0;118.0;217.0;218.0;270.0;285.0;243.0;212.0;252.0;179.0;216.0;150.0;112.0;113.0;48.0;37.0;140.0;107.0;130.0;127.0;124.0;131.0;142.0;219.0;323.0;223.0;179.0;232.0;274.0;264.0;216.0;223.0;423.0;298.0;264.0;226.0;191.0;0.0;
15;Grenoble;160649;15;0.0;0.0;0.0;0.0;86.0;86.0;136.0;74.0;84.0;70.0;73.0;67.0;74.0;121.0;110.0;32.0;32.0;16.0;19.0;77.0;58.0;88.0;86.0;98.0;99.0;109.0;142.0;137.0;157.0;118.0;178.0;179.0;216.0;197.0;232.0;300.0;362.0;447.0;509.0;325.0;0.0;
16;Dijon;155114;16;0.0;0.0;0.0;0.0;115.0;116.0;137.0;76.0;117.0;108.0;72.0;102.0;72.0;118.0;93.0;63.0;54.0;15.0;23.0;71.0;81.0;135.0;114.0;114.0;148.0;98.0;143.0;110.0;94.0;103.0;104.0;100.0;184.0;190.0;321.0;228.0;232.0;228.0;170.0;111.0;0.0;
17;Angers;151520;17;0.0;0.0;0.0;0.0;96.0;114.0;169.0;110.0;115.0;141.0;150.0;158.0;171.0;161.0;133.0;120.0;76.0;37.0;58.0;88.0;97.0;123.0;129.0;129.0;111.0;123.0;167.0;168.0;180.0;146.0;137.0;126.0;129.0;147.0;157.0;163.0;248.0;257.0;279.0;160.0;0.0;
18;Nîmes;150672;18;0.0;0.0;0.0;0.0;68.0;89.0;60.0;90.0;52.0;64.0;236.0;141.0;89.0;92.0;86.0;89.0;46.0;28.0;18.0;68.0;73.0;88.0;113.0;96.0;99.0;117.0;134.0;124.0;134.0;166.0;136.0;162.0;139.0;147.0;182.0;233.0;181.0;193.0;202.0;126.0;0.0;
19;Villeurbanne;148665;19;0.0;0.0;0.0;0.0;6.0;4.0;6.0;2.0;4.0;9.0;6.0;6.0;6.0;9.0;9.0;1.0;2.0;1.0;1.0;10.0;7.0;14.0;30.0;12.0;16.0;4.0;21.0;40.0;24.0;21.0;32.0;48.0;69.0;33.0;67.0;170.0;267.0;147.0;102.0;73.0;0.0;
20;Saint-Denis (La Réunion);146985;20;0.0;0.0;0.0;0.0;370.0;474.0;546.0;332.0;352.0;420.0;447.0;388.0;514.0;546.0;400.0;234.0;284.0;126.0;117.0;438.0;564.0;577.0;581.0;541.0;628.0;624.0;675.0;668.0;686.0;648.0;670.0;752.0;870.0;842.0;972.0;767.0;671.0;553.0;492.0;367.0;0.0;
21;Le Mans;143325;21;0.0;0.0;0.0;0.0;182.0;262.0;276.0;241.0;307.0;339.0;357.0;436.0;408.0;493.0;417.0;349.0;307.0;167.0;160.0;178.0;231.0;254.0;288.0;288.0;283.0;297.0;316.0;403.0;451.0;361.0;389.0;390.0;352.0;407.0;460.0;419.0;427.0;464.0;389.0;258.0;0.0;
22;Aix-en-Provence;142668;22;0.0;0.0;0.0;0.0;16.0;22.0;13.0;9.0;4.0;7.0;5.0;8.0;12.0;24.0;8.0;2.0;6.0;0.0;3.0;9.0;6.0;12.0;10.0;9.0;8.0;7.0;9.0;13.0;21.0;29.0;14.0;35.0;36.0;42.0;39.0;67.0;82.0;78.0;54.0;34.0;0.0;
23;Clermont-Ferrand;141398;23;0.0;0.0;0.0;0.0;34.0;52.0;25.0;54.0;29.0;27.0;22.0;26.0;14.0;39.0;44.0;11.0;12.0;10.0;36.0;27.0;21.0;31.0;41.0;46.0;40.0;38.0;65.0;53.0;32.0;45.0;40.0;46.0;45.0;45.0;76.0;133.0;132.0;80.0;120.0;85.0;0.0;
24;Brest;139163;24;0.0;0.0;0.0;0.0;163.0;211.0;252.0;153.0;185.0;145.0;133.0;222.0;238.0;424.0;306.0;121.0;76.0;64.0;343.0;203.0;173.0;104.0;119.0;102.0;90.0;148.0;177.0;184.0;163.0;128.0;130.0;142.0;185.0;159.0;135.0;306.0;150.0;167.0;136.0;87.0;0.0;
25;Tours;136252;25;0.0;0.0;0.0;0.0;751.0;1109.0;1107.0;1037.0;1123.0;1084.0;1063.0;1036.0;1033.0;1552.0;1108.0;825.0;801.0;578.0;473.0;829.0;888.0;1105.0;1121.0;1070.0;1160.0;1252.0;1456.0;1452.0;1537.0;1407.0;1304.0;1344.0;1380.0;1291.0;1396.0;1544.0;1644.0;1884.0;1824.0;1179.0;0.0;
26;Limoges;133627;26;0.0;0.0;0.0;0.0;52.0;187.0;267.0;215.0;121.0;110.0;86.0;92.0;139.0;152.0;110.0;55.0;84.0;42.0;58.0;75.0;82.0;137.0;114.0;105.0;119.0;129.0;122.0;133.0;129.0;201.0;197.0;209.0;190.0;175.0;201.0;286.0;243.0;374.0;443.0;251.0;0.0;
27;Amiens;132874;27;0.0;0.0;0.0;0.0;142.0;117.0;264.0;171.0;166.0;203.0;129.0;99.0;133.0;124.0;211.0;67.0;58.0;17.0;67.0;100.0;109.0;200.0;155.0;141.0;184.0;148.0;130.0;168.0;119.0;102.0;105.0;136.0;110.0;101.0;164.0;238.0;288.0;196.0;183.0;99.0;0.0;
28;Annecy;125694;28;0.0;0.0;0.0;0.0;35.0;38.0;22.0;18.0;13.0;13.0;16.0;14.0;19.0;17.0;14.0;8.0;11.0;6.0;3.0;7.0;6.0;22.0;13.0;22.0;23.0;43.0;24.0;33.0;36.0;23.0;22.0;18.0;21.0;30.0;46.0;83.0;74.0;61.0;44.0;36.0;0.0;
29;Perpignan;121934;29;0.0;0.0;0.0;0.0;79.0;61.0;84.0;152.0;55.0;55.0;68.0;89.0;70.0;72.0;86.0;25.0;22.0;18.0;13.0;47.0;48.0;75.0;84.0;104.0;77.0;83.0;131.0;98.0;120.0;104.0;100.0;109.0;125.0;140.0;177.0;216.0;214.0;245.0;210.0;187.0;0.0;
30;Boulogne-Billancourt;117931;30;0.0;0.0;0.0;0.0;15.0;18.0;38.0;40.0;80.0;85.0;55.0;79.0;113.0;113.0;112.0;58.0;80.0;50.0;43.0;208.0;286.0;301.0;284.0;162.0;169.0;108.0;158.0;113.0;93.0;79.0;69.0;76.0;144.0;152.0;124.0;190.0;222.0;154.0;181.0;154.0;0.0;
31;Metz;117492;31;0.0;0.0;0.0;0.0;20.0;31.0;32.0;29.0;38.0;29.0;32.0;53.0;44.0;88.0;92.0;115.0;59.0;25.0;73.0;101.0;61.0;103.0;105.0;112.0;85.0;87.0;154.0;115.0;125.0;118.0;102.0;137.0;198.0;253.0;252.0;295.0;251.0;236.0;240.0;151.0;0.0;
32;Besançon;116676;32;0.0;0.0;0.0;0.0;87.0;186.0;94.0;73.0;76.0;37.0;50.0;34.0;48.0;100.0;60.0;38.0;12.0;6.0;30.0;80.0;62.0;56.0;59.0;86.0;87.0;34.0;61.0;64.0;77.0;98.0;65.0;112.0;183.0;129.0;150.0;171.0;85.0;55.0;79.0;40.0;0.0;
33;Orléans;114644;33;0.0;0.0;0.0;0.0;334.0;471.0;442.0;433.0;336.0;271.0;362.0;244.0;226.0;421.0;277.0;215.0;176.0;99.0;78.0;221.0;376.0;364.0;282.0;247.0;242.0;222.0;251.0;302.0;207.0;176.0;198.0;224.0;288.0;303.0;427.0;394.0;268.0;243.0;481.0;238.0;0.0;
34;Saint-Denis;111103;34;0.0;0.0;0.0;0.0;454.0;582.0;607.0;369.0;382.0;442.0;488.0;414.0;566.0;780.0;549.0;290.0;323.0;144.0;136.0;468.0;610.0;621.0;609.0;590.0;683.0;698.0;740.0;787.0;824.0;777.0;770.0;890.0;1009.0;955.0;1077.0;848.0;795.0;856.0;742.0;573.0;0.0;
35;Argenteuil;110388;35;0.0;0.0;0.0;0.0;39.0;43.0;76.0;67.0;44.0;63.0;62.0;25.0;78.0;103.0;77.0;36.0;28.0;7.0;15.0;101.0;121.0;134.0;147.0;115.0;170.0;184.0;200.0;206.0;196.0;179.0;159.0;159.0;282.0;210.0;304.0;360.0;350.0;316.0;353.0;179.0;0.0;
36;Mulhouse;110370;36;0.0;0.0;0.0;0.0;11.0;27.0;26.0;12.0;34.0;15.0;11.0;21.0;14.0;63.0;87.0;107.0;67.0;44.0;23.0;80.0;77.0;70.0;58.0;63.0;40.0;31.0;98.0;69.0;115.0;57.0;70.0;91.0;136.0;128.0;123.0;167.0;161.0;120.0;138.0;114.0;0.0;
37;Rouen;110169;37;0.0;0.0;0.0;0.0;163.0;256.0;191.0;247.0;262.0;172.0;229.0;268.0;158.0;199.0;175.0;73.0;87.0;63.0;44.0;192.0;149.0;168.0;175.0;178.0;201.0;176.0;288.0;256.0;337.0;263.0;216.0;256.0;289.0;274.0;343.0;425.0;440.0;413.0;425.0;267.0;0.0;
38;Montreuil;106691;38;0.0;0.0;0.0;0.0;123.0;189.0;96.0;112.0;148.0;189.0;295.0;238.0;235.0;241.0;177.0;91.0;118.0;54.0;38.0;235.0;296.0;268.0;317.0;278.0;378.0;321.0;366.0;367.0;296.0;260.0;183.0;246.0;388.0;366.0;403.0;628.0;633.0;566.0;541.0;495.0;0.0;
39;Caen;106260;39;0.0;0.0;0.0;0.0;45.0;70.0;90.0;71.0;60.0;73.0;66.0;62.0;56.0;82.0;67.0;27.0;31.0;12.0;11.0;54.0;54.0;64.0;56.0;48.0;43.0;49.0;64.0;98.0;102.0;60.0;78.0;117.0;70.0;64.0;135.0;231.0;183.0;183.0;176.0;94.0;0.0;
40;Saint-Paul;105967;40;0.0;0.0;0.0;0.0;557.0;756.0;836.0;643.0;680.0;717.0;706.0;678.0;652.0;965.0;809.0;467.0;455.0;285.0;305.0;553.0;757.0;781.0;850.0;608.0;589.0;590.0;740.0;817.0;817.0;696.0;610.0;753.0;887.0;960.0;867.0;1060.0;1211.0;1365.0;1341.0;982.0;0.0;
41;Nancy;105162;41;0.0;0.0;0.0;0.0;81.0;133.0;148.0;371.0;207.0;163.0;130.0;107.0;135.0;394.0;342.0;142.0;96.0;66.0;37.0;107.0;114.0;150.0;123.0;121.0;121.0;142.0;175.0;194.0;160.0;222.0;310.0;319.0;230.0;220.0;317.0;261.0;299.0;258.0;261.0;188.0;0.0;
42;Tourcoing;96809;42;0.0;0.0;0.0;0.0;159.0;27.0;42.0;43.0;33.0;25.0;17.0;28.0;27.0;46.0;42.0;29.0;26.0;3.0;21.0;50.0;46.0;179.0;110.0;124.0;90.0;96.0;89.0;86.0;193.0;114.0;173.0;265.0;158.0;148.0;100.0;117.0;129.0;93.0;159.0;81.0;0.0;
43;Roubaix;96077;43;0.0;0.0;0.0;0.0;159.0;44.0;65.0;86.0;63.0;86.0;75.0;151.0;112.0;129.0;69.0;30.0;96.0;17.0;25.0;78.0;92.0;197.0;98.0;119.0;109.0;114.0;86.0;95.0;148.0;124.0;210.0;359.0;159.0;151.0;164.0;171.0;256.0;171.0;181.0;129.0;0.0;
44;Nanterre;93742;44;0.0;0.0;0.0;0.0;49.0;63.0;26.0;46.0;97.0;88.0;105.0;70.0;93.0;114.0;95.0;49.0;45.0;40.0;29.0;117.0;171.0;155.0;174.0;160.0;220.0;180.0;170.0;220.0;184.0;206.0;120.0;150.0;197.0;154.0;229.0;331.0;285.0;275.0;233.0;166.0;0.0;
45;Vitry-sur-Seine;92531;45;0.0;0.0;0.0;0.0;40.0;45.0;42.0;64.0;77.0;65.0;108.0;69.0;87.0;99.0;112.0;42.0;161.0;19.0;12.0;83.0;169.0;202.0;212.0;172.0;195.0;187.0;308.0;236.0;206.0;197.0;182.0;274.0;414.0;398.0;411.0;452.0;327.0;206.0;212.0;171.0;0.0;
46;Avignon;92130;46;0.0;0.0;0.0;0.0;73.0;86.0;55.0;63.0;34.0;41.0;45.0;53.0;48.0;48.0;61.0;23.0;18.0;33.0;5.0;51.0;49.0;51.0;50.0;66.0;79.0;79.0;106.0;87.0;85.0;59.0;84.0;148.0;121.0;198.0;180.0;252.0;201.0;164.0;150.0;68.0;0.0;
47;Créteil;90739;47;0.0;0.0;0.0;0.0;12.0;12.0;9.0;21.0;46.0;45.0;34.0;35.0;44.0;63.0;40.0;10.0;20.0;5.0;1.0;56.0;87.0;59.0;80.0;74.0;92.0;60.0;47.0;76.0;103.0;80.0;52.0;25.0;40.0;46.0;54.0;184.0;122.0;65.0;62.0;47.0;0.0;
48;Dunkerque;88876;48;0.0;0.0;0.0;0.0;46.0;45.0;74.0;72.0;49.0;44.0;66.0;49.0;84.0;55.0;89.0;103.0;43.0;51.0;29.0;62.0;47.0;48.0;58.0;56.0;56.0;35.0;230.0;76.0;98.0;92.0;91.0;118.0;227.0;373.0;153.0;93.0;101.0;115.0;177.0;132.0;0.0;
49;Poitiers;87918;49;0.0;0.0;0.0;0.0;29.0;43.0;37.0;41.0;52.0;34.0;59.0;70.0;47.0;69.0;31.0;19.0;21.0;7.0;9.0;34.0;110.0;37.0;28.0;27.0;43.0;57.0;69.0;77.0;69.0;61.0;37.0;56.0;66.0;62.0;94.0;92.0;108.0;91.0;61.0;41.0;0.0;
50;Asnières-sur-Seine;86512;50;0.0;0.0;0.0;0.0;75.0;110.0;93.0;91.0;126.0;138.0;173.0;132.0;177.0;189.0;121.0;57.0;89.0;37.0;32.0;181.0;230.0;248.0;275.0;170.0;204.0;186.0;180.0;196.0;172.0;141.0;92.0;152.0;190.0;146.0;225.0;247.0;291.0;168.0;193.0;198.0;0.0;
51;Versailles;85771;51;0.0;0.0;0.0;0.0;211.0;287.0;299.0;264.0;215.0;265.0;196.0;245.0;267.0;485.0;311.0;172.0;146.0;65.0;150.0;485.0;512.0;481.0;583.0;645.0;611.0;507.0;527.0;498.0;467.0;442.0;363.0;522.0;708.0;685.0;616.0;660.0;656.0;604.0;547.0;430.0;0.0;
52;Colombes;85199;52;0.0;0.0;0.0;0.0;147.0;156.0;165.0;154.0;206.0;172.0;215.0;157.0;206.0;397.0;288.0;125.0;127.0;83.0;93.0;296.0;344.0;456.0;455.0;407.0;482.0;309.0;374.0;367.0;374.0;344.0;328.0;356.0;380.0;307.0;328.0;478.0;499.0;419.0;413.0;278.0;0.0;
53;Saint-Pierre;84063;53;0.0;0.0;0.0;0.0;590.0;813.0;850.0;874.0;898.0;829.0;897.0;780.0;802.0;1123.0;950.0;632.0;639.0;407.0;344.0;656.0;730.0;776.0;831.0;763.0;706.0;732.0;899.0;927.0;926.0;804.0;817.0;929.0;980.0;932.0;968.0;1167.0;1230.0;1376.0;1276.0;878.0;0.0;
54;Aubervilliers;83782;54;0.0;0.0;0.0;0.0;60.0;73.0;74.0;92.0;104.0;95.0;120.0;96.0;161.0;241.0;142.0;77.0;92.0;41.0;25.0;177.0;221.0;260.0;361.0;245.0;253.0;207.0;203.0;211.0;189.0;152.0;98.0;164.0;225.0;224.0;265.0;433.0;343.0;220.0;230.0;224.0;0.0;
55;Aulnay-sous-Bois;83584;55;0.0;0.0;0.0;0.0;9.0;10.0;8.0;14.0;64.0;32.0;20.0;9.0;14.0;21.0;26.0;17.0;21.0;12.0;9.0;34.0;66.0;99.0;167.0;103.0;155.0;153.0;154.0;175.0;118.0;113.0;100.0;127.0;134.0;110.0;187.0;257.0;246.0;121.0;108.0;104.0;0.0;
56;Courbevoie;83136;56;0.0;0.0;0.0;0.0;69.0;130.0;95.0;91.0;156.0;207.0;185.0;82.0;164.0;211.0;127.0;75.0;147.0;52.0;53.0;181.0;228.0;241.0;353.0;296.0;320.0;186.0;304.0;281.0;204.0;148.0;112.0;109.0;205.0;156.0;209.0;261.0;249.0;137.0;207.0;147.0;0.0;
57;Fort-de-France;82502;57;0.0;0.0;0.0;0.0;936.0;1281.0;1229.0;1155.0;1194.0;1171.0;1122.0;1114.0;1130.0;1773.0;1314.0;1253.0;1232.0;829.0;707.0;972.0;1045.0;1162.0;1277.0;1282.0;1245.0;1336.0;1595.0;1516.0;1518.0;1400.0;1356.0;1470.0;1580.0;1511.0;1658.0;1731.0;1948.0;1971.0;1923.0;1392.0;0.0;
58;Cherbourg-en-Cotentin;80616;58;0.0;0.0;0.0;0.0;1.0;0.0;2.0;1.0;0.0;2.0;0.0;0.0;0.0;1.0;1.0;0.0;0.0;0.0;0.0;0.0;0.0;0.0;1.0;0.0;0.0;0.0;0.0;1.0;0.0;0.0;0.0;1.0;0.0;1.0;0.0;0.0;0.0;0.0;0.0;1.0;0.0;
59;Rueil-Malmaison;78794;59;0.0;0.0;0.0;0.0;0.0;0.0;0.0;1.0;1.0;0.0;3.0;0.0;1.0;0.0;0.0;0.0;0.0;0.0;0.0;2.0;0.0;2.0;0.0;0.0;0.0;0.0;1.0;1.0;1.0;0.0;1.0;2.0;4.0;6.0;2.0;10.0;8.0;63.0;20.0;23.0;0.0;
60;Pau;77215;60;0.0;0.0;0.0;0.0;100.0;166.0;197.0;166.0;142.0;184.0;216.0;244.0;257.0;333.0;254.0;178.0;133.0;63.0;69.0;115.0;133.0;171.0;147.0;117.0;72.0;110.0;141.0;181.0;205.0;203.0;207.0;159.0;171.0;160.0;205.0;203.0;238.0;283.0;290.0;164.0;0.0;
61;Champigny-sur-Marne;76508;61;0.0;0.0;0.0;0.0;32.0;27.0;20.0;24.0;42.0;49.0;33.0;19.0;34.0;32.0;34.0;31.0;48.0;25.0;9.0;75.0;106.0;70.0;77.0;29.0;63.0;30.0;51.0;81.0;59.0;49.0;56.0;54.0;80.0;82.0;99.0;132.0;83.0;48.0;46.0;44.0;0.0;
62;Le Tampon;76310;62;0.0;0.0;0.0;0.0;73.0;74.0;84.0;103.0;104.0;79.0;119.0;105.0;103.0;136.0;59.0;86.0;69.0;27.0;43.0;70.0;71.0;74.0;132.0;123.0;121.0;134.0;120.0;82.0;109.0;137.0;122.0;163.0;131.0;136.0;141.0;130.0;70.0;88.0;59.0;27.0;0.0;
63;Béziers;75999;63;0.0;0.0;0.0;0.0;50.0;125.0;86.0;160.0;50.0;45.0;38.0;49.0;37.0;71.0;51.0;47.0;29.0;7.0;5.0;39.0;48.0;52.0;44.0;45.0;68.0;110.0;75.0;93.0;146.0;127.0;93.0;78.0;85.0;102.0;115.0;159.0;102.0;87.0;123.0;67.0;0.0;
64;Calais;75961;64;0.0;0.0;0.0;0.0;80.0;126.0;230.0;192.0;200.0;151.0;208.0;212.0;212.0;206.0;202.0;192.0;113.0;94.0;91.0;212.0;186.0;175.0;166.0;204.0;192.0;207.0;248.0;219.0;182.0;177.0;166.0;330.0;285.0;321.0;366.0;315.0;388.0;312.0;370.0;258.0;0.0;
65;La Rochelle;75404;65;0.0;0.0;0.0;0.0;33.0;78.0;65.0;31.0;43.0;43.0;75.0;61.0;43.0;50.0;41.0;29.0;34.0;39.0;5.0;35.0;31.0;44.0;62.0;39.0;37.0;62.0;43.0;79.0;77.0;69.0;69.0;72.0;59.0;58.0;117.0;115.0;168.0;128.0;113.0;86.0;0.0;
66;Saint-Maur-des-Fossés;75168;66;0.0;0.0;0.0;0.0;22.0;36.0;45.0;26.0;30.0;52.0;35.0;28.0;33.0;55.0;38.0;17.0;22.0;4.0;4.0;7.0;13.0;22.0;17.0;24.0;29.0;28.0;38.0;34.0;32.0;25.0;26.0;38.0;41.0;32.0;36.0;44.0;74.0;40.0;25.0;9.0;0.0;
67;Antibes;74875;67;0.0;0.0;0.0;0.0;2.0;6.0;8.0;10.0;4.0;14.0;11.0;6.0;13.0;14.0;10.0;2.0;5.0;0.0;2.0;8.0;3.0;14.0;18.0;8.0;16.0;14.0;21.0;30.0;14.0;19.0;21.0;16.0;23.0;34.0;47.0;60.0;70.0;106.0;88.0;54.0;0.0;
68;Cannes;74285;68;0.0;0.0;0.0;0.0;109.0;146.0;162.0;136.0;146.0;174.0;149.0;122.0;172.0;198.0;106.0;68.0;96.0;28.0;35.0;63.0;105.0;207.0;277.0;189.0;191.0;141.0;269.0;257.0;257.0;132.0;130.0;190.0;182.0;188.0;277.0;245.0;222.0;310.0;276.0;235.0;0.0;
69;Colmar;70284;69;0.0;0.0;0.0;0.0;11.0;9.0;5.0;8.0;4.0;5.0;4.0;10.0;16.0;34.0;53.0;95.0;12.0;13.0;10.0;44.0;30.0;16.0;12.0;35.0;16.0;11.0;21.0;28.0;93.0;68.0;27.0;24.0;50.0;73.0;41.0;46.0;38.0;54.0;107.0;88.0;0.0;
70;Mérignac;70127;70;0.0;0.0;0.0;0.0;1.0;0.0;1.0;1.0;2.0;1.0;1.0;0.0;0.0;4.0;1.0;2.0;3.0;0.0;0.0;3.0;1.0;6.0;6.0;0.0;6.0;3.0;3.0;6.0;2.0;4.0;4.0;2.0;4.0;1.0;3.0;17.0;2.0;11.0;16.0;4.0;0.0;
71;Saint-Nazaire;69784;71;0.0;0.0;0.0;0.0;13.0;48.0;106.0;85.0;48.0;56.0;39.0;49.0;56.0;49.0;58.0;35.0;21.0;6.0;9.0;39.0;37.0;45.0;36.0;24.0;49.0;47.0;39.0;55.0;79.0;74.0;76.0;123.0;128.0;119.0;109.0;123.0;134.0;75.0;69.0;53.0;0.0;
72;Drancy;69568;72;0.0;0.0;0.0;0.0;2.0;4.0;9.0;4.0;12.0;18.0;17.0;21.0;44.0;34.0;30.0;22.0;30.0;11.0;10.0;54.0;136.0;147.0;127.0;126.0;195.0;182.0;201.0;172.0;150.0;99.0;107.0;140.0;271.0;303.0;370.0;373.0;250.0;160.0;186.0;123.0;0.0;
73;Issy-les-Moulineaux;69093;73;0.0;0.0;0.0;0.0;21.0;27.0;37.0;62.0;72.0;109.0;96.0;66.0;87.0;168.0;85.0;40.0;50.0;40.0;19.0;120.0;152.0;261.0;340.0;280.0;294.0;133.0;144.0;144.0;135.0;145.0;110.0;111.0;213.0;191.0;166.0;276.0;239.0;157.0;209.0;138.0;0.0;
74;Ajaccio;68462;74;0.0;0.0;0.0;0.0;29.0;14.0;12.0;17.0;13.0;19.0;17.0;14.0;11.0;24.0;15.0;4.0;2.0;1.0;3.0;11.0;10.0;14.0;9.0;7.0;8.0;7.0;11.0;22.0;20.0;10.0;8.0;29.0;23.0;19.0;21.0;28.0;53.0;16.0;29.0;30.0;0.0;