,A,B,1900,1901,1902,1903,1904,1905,1906,1907,1908,1909,1910,1911,1912,1913,1914,1915,1916,1917,1918,1919,1920,1921,1922,1923,1924,1925,1926,1927,1928,1929,1930,1931,1932,1933,1934,1935,1936,1937,1938,1939,1940,token
0,1,0,,,,,,,,,,,,,,,,,,,,,,,,,,,,,,,,,,,,,,,,,,97045
1,2,0,,,,,,,,,,,,,,,,,,,,,,,,,,,,,,,,,,,,,,,,,,
2,2,1,0,0,0,0,181,192,227,270,217,163,131,107,155,163,137,55,74,40,39,230,150,191,224,190,173,219,253,254,329,253,221,317,370,338,393,399,402,590,721,412,0,
3,3,0,0,0,0,0,215,252,291,344,250,231,370,268,311,417,425,198,237,193,159,234,269,305,290,298,238,301,368,474,505,527,355,327,365,388,472,604,666,741,783,523,0,
4,3,1,,,,,,,,,,,,,,,,,,,,,,,,,,,,,,,,,,,,,,,,,,
5,3,2,,,,,,,,,,,,,,,,,,,,,,,,,,,,,,,,,,,,,,,,,,
6,4,0,0,0,0,0,324,391,408,316,213,339,301,285,260,320,269,196,153,49,98,239,267,477,281,330,279,306,415,316,568,531,484,443,461,507,545,547,680,658,713,502,0,
7,4,1,,,,,,,,,,,,,,,,,,,,,,,,,,,,,,,,,,,,,,,,,,
8,4,2,,,,,,,,,,,,,,,,,,,,,,,,,,,,,,,,,,,,,,,,,,
9,4,3,,,,,,,,,,,,,,,,,,,,,,,,,,,,,,,,,,,,,,,,,,
10,5,0,0,0,0,0,150,288,264,209,373,240,258,191,139,219,183,90,135,77,51,140,125,176,156,187,205,157,251,341,454,381,338,323,353,251,401,468,670,720,773,495,0,
11,5,1,,,,,,,,,,,,,,,,,,,,,,,,,,,,,,,,,,,,,,,,,,
12,5,2,,,,,,,,,,,,,,,,,,,,,,,,,,,,,,,,,,,,,,,,,,
13,5,3,0,0,0,0,61,65,82,80,89,57,108,53,55,84,87,26,54,24,16,51,65,63,60,71,62,60,81,128,209,171,85,95,91,98,123,208,266,423,509,331,0,
14,5,4,,,,,,,,,,,,,,,,,,,,,,,,,,,,,,,,,,,,,,,,,,
15,6,0,,,,,,,,,,,,,,,,,,,,,,,,,,,,,,,,,,,,,,,,,,
16,6,1,,,,,,,,,,,,,,,,,,,,,,,,,,,,,,,,,,,,,,,,,,
17,6,2,0,0,0,0,118,123,131,108,97,118,98,68,106,150,96,39,41,14,46,132,87,77,142,146,86,79,79,92,108,97,84,110,123,145,192,216,227,253,287,204,0,
18,6,3,,,,,,,,,,,,,,,,,,,,,,,,,,,,,,,,,,,,,,,,,,
19,6,4,,,,,,,,,,,,,,,,,,,,,,,,,,,,,,,,,,,,,,,,,,
20,6,5,0,0,0,0,46,90,87,47,74,72,63,45,54,73,50,17,26,15,21,43,39,32,47,64,51,36,42,54,61,77,46,72,64,64,77,128,201,176,188,125,0,
21,7,0,,,,,,,,,,,,,,,,,,,,,,,,,,,,,,,,,,,,,,,,,,
22,7,1,,,,,,,,,,,,,,,,,,,,,,,,,,,,,,,,,,,,,,,,,,
23,7,2,0,0,0,0,49,16,18,29,26,36,26,36,29,21,20,9,21,3,5,40,38,65,44,55,33,47,36,56,66,55,66,103,66,54,86,91,138,125,138,91,0,
24,7,3,,,,,,,,,,,,,,,,,,,,,,,,,,,,,,,,,,,,,,,,,,
25,7,4,,,,,,,,,,,,,,,,,,,,,,,,,,,,,,,,,,,,,,,,,,
26,7,5,0,0,0,0,24,12,16,25,15,18,12,28,19,17,9,1,16,3,2,15,18,23,18,28,22,18,10,30,37,45,41,55,32,19,39,63,89,83,115,84,0,
27,7,6,,,,,,,,,,,,,,,,,,,,,,,,,,,,,,,,,,,,,,,,,,
28,8,0,,,,,,,,,,,,,,,,,,,,,,,,,,,,,,,,,,,,,,,,,,
29,8,1,0,0,0,0,227,332,333,132,64,83,66,69,149,193,117,65,53,19,21,94,78,116,166,152,113,84,119,114,117,105,152,190,185,171,160,175,158,198,233,163,0,
30,8,2,,,,,,,,,,,,,,,,,,,,,,,,,,,,,,,,,,,,,,,,,,
31,8,3,,,,,,,,,,,,,,,,,,,,,,,,,,,,,,,,,,,,,,,,,,
32,8,4,0,0,0,0,171,209,199,80,41,69,46,56,89,76,64,44,26,7,8,50,58,115,116,102,68,60,94,58,114,73,89,102,114,117,115,127,149,152,187,152,0,
33,8,5,,,,,,,,,,,,,,,,,,,,,,,,,,,,,,,,,,,,,,,,,,
34,8,6,,,,,,,,,,,,,,,,,,,,,,,,,,,,,,,,,,,,,,,,,,
35,8,7,0,0,0,0,121,17,17,25,12,27,8,26,44,45,17,10,16,6,4,22,22,49,63,47,38,19,27,29,29,27,40,53,46,36,46,55,71,71,95,69,0,
36,9,0,,,,,,,,,,,,,,,,,,,,,,,,,,,,,,,,,,,,,,,,,,
37,9,1,,,,,,,,,,,,,,,,,,,,,,,,,,,,,,,,,,,,,,,,,,
38,9,2,0,0,0,0,76,73,63,86,121,75,80,63,56,54,47,18,19,13,15,108,60,69,91,87,68,70,115,96,134,106,85,119,151,134,186,208,243,253,279,166,0,
39,9,3,,,,,,,,,,,,,,,,,,,,,,,,,,,,,,,,,,,,,,,,,,
40,9,4,,,,,,,,,,,,,,,,,,,,,,,,,,,,,,,,,,,,,,,,,,
41,9,5,0,0,0,0,33,51,39,43,69,33,63,56,21,31,30,11,9,8,6,36,33,30,30,36,52,30,47,64,81,68,41,54,65,53,95,108,183,175,200,103,0,
42,9,6,,,,,,,,,,,,,,,,,,,,,,,,,,,,,,,,,,,,,,,,,,
43,9,7,,,,,,,,,,,,,,,,,,,,,,,,,,,,,,,,,,,,,,,,,,
44,9,8,0,0,0,0,59,91,71,61,86,49,86,79,56,66,62,27,28,13,10,70,48,53,107,92,83,44,95,65,109,71,68,99,107,97,126,164,130,188,194,132,0,
45,10,0,,,,,,,,,,,,,,,,,,,,,,,,,,,,,,,,,,,,,,,,,,
46,10,1,,,,,,,,,,,,,,,,,,,,,,,,,,,,,,,,,,,,,,,,,,
47,10,2,0,0,0,0,29,24,53,56,48,61,62,56,52,58,63,31,14,10,12,49,27,47,75,40,55,52,62,69,68,86,87,98,104,67,108,101,123,137,177,121,0,
48,10,3,,,,,,,,,,,,,,,,,,,,,,,,,,,,,,,,,,,,,,,,,,
49,10,4,,,,,,,,,,,,,,,,,,,,,,,,,,,,,,,,,,,,,,,,,,
50,10,5,0,0,0,0,20,29,41,30,40,29,37,40,20,29,36,10,12,8,5,15,8,25,32,23,31,26,30,56,57,48,39,56,57,27,54,65,103,109,159,98,0,
51,10,6,,,,,,,,,,,,,,,,,,,,,,,,,,,,,,,,,,,,,,,,,,
52,10,7,0,0,0,0,18,7,7,12,11,14,11,26,16,22,15,6,12,1,5,14,11,21,27,10,17,11,13,15,24,22,30,38,24,21,27,43,47,65,65,65,0,
53,10,8,,,,,,,,,,,,,,,,,,,,,,,,,,,,,,,,,,,,,,,,,,
54,10,9,,,,,,,,,,,,,,,,,,,,,,,,,,,,,,,,,,,,,,,,,,
55,11,0,0,0,0,0,81,132,145,368,207,161,128,107,127,389,335,138,94,58,37,106,114,148,122,119,119,139,173,194,157,216,301,307,223,215,315,261,294,256,261,188,0,
56,11,1,,,,,,,,,,,,,,,,,,,,,,,,,,,,,,,,,,,,,,,,,,
57,11,2,,,,,,,,,,,,,,,,,,,,,,,,,,,,,,,,,,,,,,,,,,
58,11,3,,,,,,,,,,,,,,,,,,,,,,,,,,,,,,,,,,,,,,,,,,
59,11,4,0,0,0,0,30,41,46,90,46,54,37,26,29,72,60,19,18,8,6,41,47,64,34,34,35,29,43,59,52,75,112,92,72,74,94,86,158,127,134,96,0,
60,11,5,,,,,,,,,,,,,,,,,,,,,,,,,,,,,,,,,,,,,,,,,,
61,11,6,,,,,,,,,,,,,,,,,,,,,,,,,,,,,,,,,,,,,,,,,,
62,11,7,,,,,,,,,,,,,,,,,,,,,,,,,,,,,,,,,,,,,,,,,,
63,11,8,,,,,,,,,,,,,,,,,,,,,,,,,,,,,,,,,,,,,,,,,,
64,11,9,0,0,0,0,17,37,25,79,43,34,25,32,23,41,42,16,7,6,3,30,32,29,27,20,38,26,42,43,40,46,57,52,42,38,64,65,119,115,111,74,0,
65,11,10,,,,,,,,,,,,,,,,,,,,,,,,,,,,,,,,,,,,,,,,,,
66,12,0,,,,,,,,,,,,,,,,,,,,,,,,,,,,,,,,,,,,,,,,,,
67,12,1,0,0,0,0,52,103,113,92,89,81,68,84,63,97,54,24,31,10,12,58,51,50,59,50,56,58,89,107,86,61,87,134,132,105,112,181,140,161,139,91,0,
68,12,2,,,,,,,,,,,,,,,,,,,,,,,,,,,,,,,,,,,,,,,,,,
69,12,3,,,,,,,,,,,,,,,,,,,,,,,,,,,,,,,,,,,,,,,,,,
70,12,4,0,0,0,0,34,57,59,61,72,67,50,67,39,39,23,25,14,3,3,32,34,56,38,30,30,41,61,66,74,54,63,78,81,67,67,128,161,114,95,73,0,
71,12,5,,,,,,,,,,,,,,,,,,,,,,,,,,,,,,,,,,,,,,,,,,
72,12,6,,,,,,,,,,,,,,,,,,,,,,,,,,,,,,,,,,,,,,,,,,
73,12,7,0,0,0,0,18,8,11,20,16,15,11,22,11,24,6,5,8,3,0,14,15,30,13,19,10,15,11,24,19,12,27,54,24,22,27,30,57,44,42,31,0,
74,12,8,,,,,,,,,,,,,,,,,,,,,,,,,,,,,,,,,,,,,,,,,,
75,12,9,,,,,,,,,,,,,,,,,,,,,,,,,,,,,,,,,,,,,,,,,,
76,12,10,0,0,0,0,6,18,23,27,28,35,38,51,28,30,28,18,9,6,1,22,12,11,23,7,19,21,26,32,26,23,36,39,40,17,31,55,66,48,57,34,0,
77,12,11,,,,,,,,,,,,,,,,,,,,,,,,,,,,,,,,,,,,,,,,,,
78,13,0,,,,,,,,,,,,,,,,,,,,,,,,,,,,,,,,,,,,,,,,,,
79,13,1,0,0,0,0,56,100,118,86,69,66,59,78,55,113,109,14,17,11,8,41,48,70,51,57,56,45,87,80,66,85,52,94,133,129,226,202,193,439,449,312,0,
80,13,2,,,,,,,,,,,,,,,,,,,,,,,,,,,,,,,,,,,,,,,,,,
81,13,3,,,,,,,,,,,,,,,,,,,,,,,,,,,,,,,,,,,,,,,,,,
82,13,4,0,0,0,0,39,51,64,53,33,39,36,56,32,50,50,12,12,1,3,27,28,58,33,32,29,36,64,52,56,71,50,56,75,84,136,130,153,349,385,287,0,
83,13,5,,,,,,,,,,,,,,,,,,,,,,,,,,,,,,,,,,,,,,,,,,
84,13,6,,,,,,,,,,,,,,,,,,,,,,,,,,,,,,,,,,,,,,,,,,
85,13,7,0,0,0,0,19,9,11,14,9,8,11,25,13,19,15,0,7,1,1,11,16,23,15,12,12,10,11,26,19,19,32,41,29,36,43,60,62,98,101,90,0,
86,13,8,,,,,,,,,,,,,,,,,,,,,,,,,,,,,,,,,,,,,,,,,,
87,13,9,0,0,0,0,19,33,11,37,34,19,26,49,17,40,36,3,10,3,5,23,22,28,18,21,26,22,43,34,31,33,25,32,53,55,101,104,120,174,185,123,0,
88,13,10,,,,,,,,,,,,,,,,,,,,,,,,,,,,,,,,,,,,,,,,,,
89,13,11,,,,,,,,,,,,,,,,,,,,,,,,,,,,,,,,,,,,,,,,,,
90,13,12,,,,,,,,,,,,,,,,,,,,,,,,,,,,,,,,,,,,,,,,,,
91,14,0,0,0,0,0,141,117,261,168,166,200,127,99,127,122,203,64,57,17,63,99,108,198,153,139,182,148,127,165,116,98,101,132,109,101,162,237,283,194,181,99,0,
92,14,1,,,,,,,,,,,,,,,,,,,,,,,,,,,,,,,,,,,,,,,,,,
93,14,2,0,0,0,0,67,33,90,65,83,77,46,25,56,33,48,8,9,1,8,46,43,76,89,61,47,76,50,68,47,53,43,59,59,46,84,129,185,133,122,71,0,
94,14,3,,,,,,,,,,,,,,,,,,,,,,,,,,,,,,,,,,,,,,,,,,
95,14,4,,,,,,,,,,,,,,,,,,,,,,,,,,,,,,,,,,,,,,,,,,
96,14,5,0,0,0,0,28,25,55,40,59,38,42,15,21,28,26,5,4,4,3,14,18,29,32,29,40,26,25,44,32,33,31,39,40,21,48,74,161,88,72,51,0,
97,14,6,,,,,,,,,,,,,,,,,,,,,,,,,,,,,,,,,,,,,,,,,,
98,14,7,,,,,,,,,,,,,,,,,,,,,,,,,,,,,,,,,,,,,,,,,,
