name;habitants
Paris;2206488
Marseille;861635
Lyon;513275
Toulouse;471941
Nice;342522
Nantes;303382
Montpellier;277639
Strasbourg;277270
Bordeaux;249712
Lille;232741
Rennes;215366
Reims;184076
Le-Havre;172366
Saint-Etienne;171057
Toulon;167479
Grenoble;160649
Dijon;155114
Angers;151520
Nimes;150672
Villeurbanne;148665
Saint-Denis;146085
Le-Mans;143325
Aix-en-Provence;142668
Clermont-Ferrand;141398
Brest;139163
Tours;136252
Limoges;133627
Amiens;132874
Annecy;125694
Perpignan;121934
Boulogne-Billancourt;117931
Metz;117492
Besancon;116676
Orleans;114644
Saint-Denis;111103
Argenteuil;110388
Mulhouse;110370
Rouen;110169
Montreuil;106691
Caen;106260
Saint-Paul;105087
Nancy;105162
Tourcoing;96809
Roubaix;96077
Nanterre;93742
Vitry-sur-Seine;92531
Avignon;92130
Creteil;90739
Dunkerque;88876
Poitiers;87918
Asnieres-sur-Seine;86512
Versailles;85771
Colombes;85199
Saint-Pierre;84063
Aubervilliers;83782
Aulnay-sous-Bois;83584
Courbevoie;83136
Fort-de-France;82502
Cherbourg-en-Cotentin;80616
Rueil-Malmaison;78794
Pau;77215
Champigny-sur-Marne;76508
Le-tampon;76310
Beziers;75999
Calais;75961
La-rochelle;75404
Saint-Maur-des-Fosses;75168
Antibes;74875
Cannes;74285
Colmar;70284
Merignac;70127
Saint-Nazaire;69784
Drancy;69568
Issy-les-Moulineaux;69093
Ajaccio;68462